<?xml version="1.0" encoding="UTF-8" standalone="no"?>
<svg
   xmlns:dc="http://purl.org/dc/elements/1.1/"
   xmlns:cc="http://creativecommons.org/ns#"
   xmlns:rdf="http://www.w3.org/1999/02/22-rdf-syntax-ns#"
   xmlns:svg="http://www.w3.org/2000/svg"
   xmlns="http://www.w3.org/2000/svg"
   xmlns:sodipodi="http://sodipodi.sourceforge.net/DTD/sodipodi-0.dtd"
   xmlns:inkscape="http://www.inkscape.org/namespaces/inkscape"
   height="512pt"
   viewBox="0 0 512 512"
   width="512pt"
   version="1.1"
   id="svg24"
   sodipodi:docname="cogwheels_modifi.svg"
   inkscape:version="1.0.1 (3bc2e813f5, 2020-09-07)">
  <metadata
     id="metadata30">
    <rdf:RDF>
      <cc:Work
         rdf:about="">
        <dc:format>image/svg+xml</dc:format>
        <dc:type
           rdf:resource="http://purl.org/dc/dcmitype/StillImage" />
        <dc:title></dc:title>
      </cc:Work>
    </rdf:RDF>
  </metadata>
  <defs
     id="defs28" />
  <sodipodi:namedview
     pagecolor="#ffffff"
     bordercolor="#666666"
     borderopacity="1"
     objecttolerance="10"
     gridtolerance="10"
     guidetolerance="10"
     inkscape:pageopacity="0"
     inkscape:pageshadow="2"
     inkscape:window-width="1366"
     inkscape:window-height="717"
     id="namedview26"
     showgrid="false"
     inkscape:zoom="0.77301056"
     inkscape:cx="77.430082"
     inkscape:cy="341.33333"
     inkscape:window-x="0"
     inkscape:window-y="27"
     inkscape:window-maximized="1"
     inkscape:current-layer="svg24" />
  <path
     d="m512 256c0 141.386719-114.613281 256-256 256s-256-114.613281-256-256 114.613281-256 256-256 256 114.613281 256 256zm0 0"
     fill="#ffd400"
     id="path2"
     style="fill:#ff7f00;fill-opacity:1"
     inkscape:export-filename="/home/vbasel/gitlab/saturar/src/img/menu.png"
     inkscape:export-xdpi="4.5"
     inkscape:export-ydpi="4.5" />
  <path
     d="m511.675781 243.015625-89.074219-89.070313-14.339843 8.847657-44.292969-44.292969-101.96875 101.96875 38.839844 38.835938-7.046875 7.046874-25.898438-25.898437-16.722656 11.707031-55.160156-55.160156-125.011719 125.011719 55.578125 55.578125-12.125 16.308594 116.917969 116.917968c8.109375.773438 16.320312 1.183594 24.628906 1.183594 141.386719 0 256-114.613281 256-256 0-4.355469-.109375-8.683594-.324219-12.984375zm0 0"
     fill="#fdba12"
     id="path4"
     style="fill:#fd4712;fill-opacity:1" />
  <path
     d="m439 220.46875v-26.9375h-17.195312c-1.878907-10.019531-5.820313-19.316406-11.363282-27.425781l12.160156-12.164063-19.046874-19.042968-12.160157 12.160156c-8.113281-5.546875-17.40625-9.484375-27.429687-11.367188v-17.191406h-26.933594v17.195312c-10.019531 1.878907-19.316406 5.820313-27.429688 11.363282l-12.160156-12.160156-19.046875 19.046874 12.164063 12.160157c-5.546875 8.113281-9.488282 17.40625-11.367188 27.429687h-17.191406v26.933594h17.191406c1.882813 10.023438 5.824219 19.316406 11.367188 27.429688l-12.160156 12.160156 19.046874 19.046875 12.160157-12.164063c8.113281 5.546875 17.40625 9.484375 27.425781 11.367188v17.191406h26.9375v-17.195312c10.019531-1.878907 19.3125-5.820313 27.425781-11.363282l12.160157 12.160156 19.046874-19.046874-12.160156-12.160157c5.542969-8.113281 9.484375-17.40625 11.367188-27.429687zm-88.5 30.507812c-24.285156 0-43.976562-19.691406-43.976562-43.976562s19.691406-43.976562 43.976562-43.976562 43.976562 19.691406 43.976562 43.976562-19.691406 43.976562-43.976562 43.976562zm0 0"
     fill="#414952"
     id="path6" />
  <path
     d="m288 322.011719v-33.023438h-21.078125c-2.308594-12.285156-7.136719-23.679687-13.933594-33.625l14.90625-14.910156-23.347656-23.347656-14.910156 14.910156c-9.945313-6.800781-21.339844-11.628906-33.625-13.9375v-21.078125h-33.023438v21.078125c-12.285156 2.308594-23.679687 7.136719-33.625 13.933594l-14.910156-14.910157-23.347656 23.351563 14.910156 14.910156c-6.800781 9.945313-11.628906 21.339844-13.9375 33.625h-21.078125v33.023438h21.078125c2.308594 12.285156 7.136719 23.679687 13.933594 33.625l-14.90625 14.910156 23.347656 23.347656 14.910156-14.910156c9.945313 6.800781 21.339844 11.628906 33.625 13.9375v21.078125h33.023438v-21.078125c12.285156-2.308594 23.679687-7.136719 33.625-13.9375l14.910156 14.910156 23.351563-23.347656-14.910157-14.910156c6.796875-9.945313 11.625-21.339844 13.933594-33.625zm-108.5 37.402343c-29.773438 0-53.914062-24.140624-53.914062-53.914062s24.140624-53.914062 53.914062-53.914062 53.914062 24.140624 53.914062 53.914062c0 29.777344-24.140624 53.914062-53.914062 53.914062zm0 0"
     fill="#414952"
     id="path8" />
  <path
     d="m288 322.011719v-33.023438h-21.078125c-2.308594-12.285156-7.136719-23.679687-13.933594-33.625l14.90625-14.910156-23.347656-23.347656-14.910156 14.90625c-9.945313-6.796875-21.339844-11.625-33.625-13.933594v-21.078125h-16.589844v54.589844c.023437 0 .050781-.003906.078125-.003906 29.777344 0 53.914062 24.140624 53.914062 53.914062s-24.140624 53.914062-53.914062 53.914062c-.027344 0-.054688-.003906-.078125-.003906v54.589844h16.589844v-21.078125c12.285156-2.308594 23.679687-7.136719 33.625-13.933594l14.910156 14.910157 23.351563-23.351563-14.910157-14.910156c6.796875-9.945313 11.625-21.339844 13.933594-33.625zm0 0"
     fill="#333940"
     id="path10" />
  <path
     d="m208 305.5c0 15.738281-12.761719 28.5-28.5 28.5s-28.5-12.761719-28.5-28.5 12.761719-28.5 28.5-28.5 28.5 12.761719 28.5 28.5zm0 0"
     fill="#414952"
     id="path12" />
  <path
     d="m208 305.5c0-15.53125-12.429688-28.152344-27.882812-28.484375v56.96875c15.453124-.332031 27.882812-12.953125 27.882812-28.484375zm0 0"
     fill="#333940"
     id="path14" />
  <path
     d="m372.859375 207c0 12.351562-10.007813 22.359375-22.359375 22.359375s-22.359375-10.007813-22.359375-22.359375 10.007813-22.359375 22.359375-22.359375 22.359375 10.007813 22.359375 22.359375zm0 0"
     fill="#414952"
     id="path16" />
  <g
     fill="#333940"
     id="g22">
    <path
       d="m439 220.46875v-26.9375h-17.195312c-1.878907-10.019531-5.820313-19.316406-11.363282-27.425781l12.160156-12.164063-19.046874-19.042968-12.160157 12.160156c-8.113281-5.546875-17.40625-9.484375-27.425781-11.367188v-17.191406h-13.46875v44.554688c-.765625-.011719-.386719-.03125 0-.03125 24.285156 0 43.976562 19.691406 43.976562 43.976562s-19.691406 43.976562-43.976562 43.976562c-.386719 0-.765625-.019531 0-.03125v44.554688h13.46875v-17.195312c10.019531-1.878907 19.3125-5.820313 27.425781-11.363282l12.160157 12.160156 19.046874-19.046874-12.160156-12.160157c5.542969-8.113281 9.484375-17.40625 11.363282-27.429687h17.195312zm0 0"
       id="path18" />
    <path
       d="m350.5 229.359375c12.351562 0 22.359375-10.007813 22.359375-22.359375s-10.007813-22.359375-22.359375-22.359375zm0 0"
       id="path20" />
  </g>
</svg>
